176500000.00,31000000.00,37500000.00,16000000.00,11500000.00,19000000.00,17500000.00,22500000.00,0.00,0.00,21000000.00,26000000.00,23500000.00,30000000.00,43500000.00,63000000.00,67500000.00,129500000.00,0.00,0.00,73000000.00,24500000.00,18000000.00,25000000.00,18000000.00,56000000.00,27000000.00,20000000.00,0.00,0.00,5500000.00,29500000.00,29500000.00,35500000.00,54500000.00,77000000.00,123500000.00,0.00
18500000.00,32500000.00,26000000.00,34500000.00,20000000.00,20000000.00,28500000.00,18000000.00,0.00,0.00,17000000.00,26000000.00,22500000.00,30000000.00,44000000.00,88500000.00,102500000.00,107500000.00,0.00,0.00,80000000.00,26000000.00,16000000.00,22500000.00,26000000.00,67000000.00,21000000.00,19500000.00,0.00,0.00,18500000.00,23000000.00,32500000.00,43000000.00,36500000.00,71000000.00,0.00,123500000.00
27000000.00,26000000.00,25000000.00,23500000.00,23500000.00,22000000.00,21000000.00,25000000.00,0.00,0.00,17500000.00,40000000.00,40000000.00,50000000.00,72500000.00,48500000.00,59000000.00,67500000.00,0.00,0.00,59000000.00,25000000.00,11500000.00,28500000.00,29500000.00,32500000.00,34500000.00,28500000.00,0.00,0.00,23000000.00,28500000.00,29500000.00,47500000.00,112000000.00,0.00,71000000.00,77000000.00
13000000.00,29500000.00,25500000.00,21500000.00,29000000.00,24500000.00,20500000.00,26500000.00,0.00,0.00,23500000.00,29500000.00,38500000.00,61500000.00,111000000.00,39500000.00,53000000.00,58500000.00,0.00,0.00,61000000.00,26500000.00,12000000.00,19000000.00,23000000.00,33000000.00,16500000.00,18000000.00,0.00,0.00,29000000.00,55500000.00,57500000.00,94000000.00,0.00,112000000.00,36500000.00,54500000.00
4000000.00,21000000.00,30000000.00,24500000.00,15500000.00,23000000.00,27000000.00,26500000.00,0.00,0.00,29500000.00,38500000.00,76500000.00,125000000.00,125000000.00,28000000.00,36000000.00,46000000.00,0.00,0.00,62000000.00,20000000.00,15000000.00,32500000.00,24000000.00,27500000.00,20000000.00,17500000.00,0.00,0.00,43500000.00,45000000.00,86000000.00,0.00,94000000.00,47500000.00,43000000.00,35500000.00
1000000.00,31000000.00,26000000.00,33000000.00,29000000.00,28500000.00,23500000.00,39500000.00,0.00,0.00,33000000.00,45000000.00,120500000.00,104500000.00,77500000.00,27000000.00,27500000.00,41000000.00,0.00,0.00,68000000.00,22500000.00,21000000.00,25000000.00,26500000.00,27000000.00,25500000.00,36500000.00,0.00,0.00,36000000.00,65000000.00,0.00,86000000.00,57500000.00,29500000.00,32500000.00,29500000.00
2000000.00,27000000.00,20500000.00,20000000.00,17500000.00,26000000.00,41000000.00,46500000.00,0.00,0.00,58500000.00,97000000.00,132500000.00,74000000.00,49500000.00,18000000.00,23500000.00,28500000.00,0.00,0.00,68500000.00,20000000.00,12500000.00,32500000.00,27000000.00,30500000.00,40500000.00,50500000.00,0.00,0.00,64500000.00,0.00,65000000.00,45000000.00,55500000.00,28500000.00,23000000.00,29500000.00
6000000.00,30000000.00,25500000.00,21000000.00,24000000.00,35500000.00,56000000.00,74500000.00,0.00,0.00,92500000.00,93500000.00,61500000.00,34500000.00,35500000.00,21500000.00,23500000.00,23500000.00,0.00,0.00,69000000.00,31000000.00,16000000.00,30000000.00,37000000.00,21000000.00,54500000.00,89500000.00,0.00,0.00,0.00,64500000.00,36000000.00,43500000.00,29000000.00,23000000.00,18500000.00,5500000.00
0.00,0.00,0.00,0.00,0.00,0.00,0.00,0.00,0.00,0.00,0.00,0.00,0.00,0.00,0.00,0.00,0.00,0.00,0.00,0.00,0.00,0.00,0.00,0.00,0.00,0.00,0.00,0.00,0.00,0.00,0.00,0.00,0.00,0.00,0.00,0.00,0.00,0.00
0.00,0.00,0.00,0.00,0.00,0.00,0.00,0.00,0.00,0.00,0.00,0.00,0.00,0.00,0.00,0.00,0.00,0.00,0.00,0.00,0.00,0.00,0.00,0.00,0.00,0.00,0.00,0.00,0.00,0.00,0.00,0.00,0.00,0.00,0.00,0.00,0.00,0.00
4000000.00,24500000.00,35000000.00,50000000.00,40000000.00,51500000.00,49500000.00,115000000.00,0.00,0.00,119500000.00,61500000.00,51000000.00,32000000.00,31500000.00,26000000.00,24500000.00,21000000.00,0.00,0.00,86000000.00,23500000.00,14500000.00,30500000.00,52000000.00,28000000.00,81500000.00,0.00,0.00,0.00,89500000.00,50500000.00,36500000.00,17500000.00,18000000.00,28500000.00,19500000.00,20000000.00
6000000.00,28500000.00,25500000.00,49500000.00,48000000.00,81500000.00,113500000.00,111500000.00,0.00,0.00,61000000.00,46000000.00,32000000.00,32000000.00,31000000.00,24000000.00,24000000.00,24000000.00,0.00,0.00,74000000.00,24000000.00,24000000.00,51500000.00,56000000.00,24000000.00,0.00,81500000.00,0.00,0.00,54500000.00,40500000.00,25500000.00,20000000.00,16500000.00,34500000.00,21000000.00,27000000.00
4000000.00,66000000.00,46500000.00,43500000.00,19500000.00,21000000.00,22500000.00,24500000.00,0.00,0.00,22000000.00,25000000.00,30000000.00,25000000.00,32000000.00,121000000.00,81500000.00,37500000.00,0.00,0.00,144000000.00,67500000.00,19500000.00,27500000.00,36500000.00,0.00,24000000.00,28000000.00,0.00,0.00,21000000.00,30500000.00,27000000.00,27500000.00,33000000.00,32500000.00,67000000.00,56000000.00
6000000.00,35000000.00,55000000.00,56500000.00,105000000.00,131500000.00,100000000.00,37500000.00,0.00,0.00,47000000.00,31000000.00,15500000.00,25500000.00,15500000.00,29000000.00,19500000.00,23500000.00,0.00,0.00,93500000.00,40500000.00,39500000.00,82500000.00,0.00,36500000.00,56000000.00,52000000.00,0.00,0.00,37000000.00,27000000.00,26500000.00,24000000.00,23000000.00,29500000.00,26000000.00,18000000.00
0.00,52000000.00,55000000.00,101000000.00,119500000.00,69500000.00,50000000.00,40000000.00,0.00,0.00,22500000.00,26000000.00,32000000.00,20500000.00,30500000.00,28500000.00,26500000.00,34000000.00,0.00,0.00,104000000.00,56500000.00,48500000.00,0.00,82500000.00,27500000.00,51500000.00,30500000.00,0.00,0.00,30000000.00,32500000.00,25000000.00,32500000.00,19000000.00,28500000.00,22500000.00,25000000.00
0.00,28500000.00,31000000.00,59000000.00,52000000.00,38000000.00,25000000.00,24500000.00,0.00,0.00,18000000.00,15500000.00,10000000.00,21000000.00,15000000.00,15000000.00,12000000.00,13500000.00,0.00,0.00,42500000.00,33500000.00,0.00,48500000.00,39500000.00,19500000.00,24000000.00,14500000.00,0.00,0.00,16000000.00,12500000.00,21000000.00,15000000.00,12000000.00,11500000.00,16000000.00,18000000.00
1500000.00,90500000.00,138000000.00,61500000.00,48500000.00,29500000.00,33000000.00,36000000.00,0.00,0.00,24000000.00,24000000.00,26000000.00,30000000.00,21500000.00,53500000.00,38500000.00,27000000.00,0.00,0.00,179500000.00,0.00,33500000.00,56500000.00,40500000.00,67500000.00,24000000.00,23500000.00,0.00,0.00,31000000.00,20000000.00,22500000.00,20000000.00,26500000.00,25000000.00,26000000.00,24500000.00
4500000.00,216500000.00,150000000.00,107500000.00,107500000.00,86500000.00,80500000.00,61500000.00,0.00,0.00,69000000.00,63500000.00,58500000.00,63500000.00,71000000.00,93500000.00,87500000.00,98000000.00,0.00,0.00,0.00,179500000.00,42500000.00,104000000.00,93500000.00,144000000.00,74000000.00,86000000.00,0.00,0.00,69000000.00,68500000.00,68000000.00,62000000.00,61000000.00,59000000.00,80000000.00,73000000.00
0.00,0.00,0.00,0.00,0.00,0.00,0.00,0.00,0.00,0.00,0.00,0.00,0.00,0.00,0.00,0.00,0.00,0.00,0.00,0.00,0.00,0.00,0.00,0.00,0.00,0.00,0.00,0.00,0.00,0.00,0.00,0.00,0.00,0.00,0.00,0.00,0.00,0.00
0.00,0.00,0.00,0.00,0.00,0.00,0.00,0.00,0.00,0.00,0.00,0.00,0.00,0.00,0.00,0.00,0.00,0.00,0.00,0.00,0.00,0.00,0.00,0.00,0.00,0.00,0.00,0.00,0.00,0.00,0.00,0.00,0.00,0.00,0.00,0.00,0.00,0.00
56000000.00,33000000.00,27000000.00,27000000.00,17000000.00,23500000.00,18500000.00,17500000.00,0.00,0.00,16000000.00,27000000.00,19500000.00,47500000.00,49500000.00,52500000.00,69000000.00,0.00,0.00,0.00,98000000.00,27000000.00,13500000.00,34000000.00,23500000.00,37500000.00,24000000.00,21000000.00,0.00,0.00,23500000.00,28500000.00,41000000.00,46000000.00,58500000.00,67500000.00,107500000.00,129500000.00
4500000.00,39000000.00,28500000.00,20500000.00,22500000.00,39500000.00,20500000.00,20000000.00,0.00,0.00,18500000.00,21000000.00,20500000.00,29500000.00,44000000.00,93500000.00,0.00,69000000.00,0.00,0.00,87500000.00,38500000.00,12000000.00,26500000.00,19500000.00,81500000.00,24000000.00,24500000.00,0.00,0.00,23500000.00,23500000.00,27500000.00,36000000.00,53000000.00,59000000.00,102500000.00,67500000.00
3500000.00,53500000.00,29500000.00,26500000.00,25500000.00,38500000.00,23500000.00,33500000.00,0.00,0.00,32500000.00,20000000.00,30000000.00,36000000.00,41000000.00,0.00,93500000.00,52500000.00,0.00,0.00,93500000.00,53500000.00,15000000.00,28500000.00,29000000.00,121000000.00,24000000.00,26000000.00,0.00,0.00,21500000.00,18000000.00,27000000.00,28000000.00,39500000.00,48500000.00,88500000.00,63000000.00
13500000.00,28000000.00,28000000.00,25000000.00,22500000.00,33000000.00,21000000.00,25000000.00,0.00,0.00,20500000.00,38000000.00,55500000.00,101500000.00,0.00,41000000.00,44000000.00,49500000.00,0.00,0.00,71000000.00,21500000.00,15000000.00,30500000.00,15500000.00,32000000.00,31000000.00,31500000.00,0.00,0.00,35500000.00,49500000.00,77500000.00,125000000.00,111000000.00,72500000.00,44000000.00,43500000.00
6000000.00,24000000.00,16000000.00,20000000.00,25500000.00,28000000.00,26000000.00,27500000.00,0.00,0.00,34000000.00,52000000.00,72500000.00,0.00,101500000.00,36000000.00,29500000.00,47500000.00,0.00,0.00,63500000.00,30000000.00,21000000.00,20500000.00,25500000.00,25000000.00,32000000.00,32000000.00,0.00,0.00,34500000.00,74000000.00,104500000.00,125000000.00,61500000.00,50000000.00,30000000.00,30000000.00
12500000.00,24000000.00,20000000.00,18000000.00,19000000.00,27500000.00,33500000.00,43000000.00,0.00,0.00,50500000.00,84000000.00,0.00,72500000.00,55500000.00,30000000.00,20500000.00,19500000.00,0.00,0.00,58500000.00,26000000.00,10000000.00,32000000.00,15500000.00,30000000.00,32000000.00,51000000.00,0.00,0.00,61500000.00,132500000.00,120500000.00,76500000.00,38500000.00,40000000.00,22500000.00,23500000.00
7000000.00,20000000.00,23000000.00,24000000.00,24000000.00,34000000.00,48000000.00,42500000.00,0.00,0.00,57500000.00,0.00,84000000.00,52000000.00,38000000.00,20000000.00,21000000.00,27000000.00,0.00,0.00,63500000.00,24000000.00,15500000.00,26000000.00,31000000.00,25000000.00,46000000.00,61500000.00,0.00,0.00,93500000.00,97000000.00,45000000.00,38500000.00,29500000.00,40000000.00,26000000.00,26000000.00
2000000.00,29000000.00,27000000.00,35500000.00,29500000.00,42500000.00,47000000.00,84500000.00,0.00,0.00,0.00,57500000.00,50500000.00,34000000.00,20500000.00,32500000.00,18500000.00,16000000.00,0.00,0.00,69000000.00,24000000.00,18000000.00,22500000.00,47000000.00,22000000.00,61000000.00,119500000.00,0.00,0.00,92500000.00,58500000.00,33000000.00,29500000.00,23500000.00,17500000.00,17000000.00,21000000.00
0.00,0.00,0.00,0.00,0.00,0.00,0.00,0.00,0.00,0.00,0.00,0.00,0.00,0.00,0.00,0.00,0.00,0.00,0.00,0.00,0.00,0.00,0.00,0.00,0.00,0.00,0.00,0.00,0.00,0.00,0.00,0.00,0.00,0.00,0.00,0.00,0.00,0.00
0.00,0.00,0.00,0.00,0.00,0.00,0.00,0.00,0.00,0.00,0.00,0.00,0.00,0.00,0.00,0.00,0.00,0.00,0.00,0.00,0.00,0.00,0.00,0.00,0.00,0.00,0.00,0.00,0.00,0.00,0.00,0.00,0.00,0.00,0.00,0.00,0.00,0.00
5000000.00,24000000.00,22000000.00,30500000.00,39000000.00,52000000.00,78000000.00,0.00,0.00,0.00,84500000.00,42500000.00,43000000.00,27500000.00,25000000.00,33500000.00,20000000.00,17500000.00,0.00,0.00,61500000.00,36000000.00,24500000.00,40000000.00,37500000.00,24500000.00,111500000.00,115000000.00,0.00,0.00,74500000.00,46500000.00,39500000.00,26500000.00,26500000.00,25000000.00,18000000.00,22500000.00
4000000.00,37000000.00,30500000.00,41500000.00,54000000.00,110500000.00,0.00,78000000.00,0.00,0.00,47000000.00,48000000.00,33500000.00,26000000.00,21000000.00,23500000.00,20500000.00,18500000.00,0.00,0.00,80500000.00,33000000.00,25000000.00,50000000.00,100000000.00,22500000.00,113500000.00,49500000.00,0.00,0.00,56000000.00,41000000.00,23500000.00,27000000.00,20500000.00,21000000.00,28500000.00,17500000.00
6000000.00,27500000.00,39000000.00,52000000.00,87000000.00,0.00,110500000.00,52000000.00,0.00,0.00,42500000.00,34000000.00,27500000.00,28000000.00,33000000.00,38500000.00,39500000.00,23500000.00,0.00,0.00,86500000.00,29500000.00,38000000.00,69500000.00,131500000.00,21000000.00,81500000.00,51500000.00,0.00,0.00,35500000.00,26000000.00,28500000.00,23000000.00,24500000.00,22000000.00,20000000.00,19000000.00
1000000.00,46500000.00,53500000.00,72000000.00,0.00,87000000.00,54000000.00,39000000.00,0.00,0.00,29500000.00,24000000.00,19000000.00,25500000.00,22500000.00,25500000.00,22500000.00,17000000.00,0.00,0.00,107500000.00,48500000.00,52000000.00,119500000.00,105000000.00,19500000.00,48000000.00,40000000.00,0.00,0.00,24000000.00,17500000.00,29000000.00,15500000.00,29000000.00,23500000.00,20000000.00,11500000.00
4500000.00,58000000.00,73500000.00,0.00,72000000.00,52000000.00,41500000.00,30500000.00,0.00,0.00,35500000.00,24000000.00,18000000.00,20000000.00,25000000.00,26500000.00,20500000.00,27000000.00,0.00,0.00,107500000.00,61500000.00,59000000.00,101000000.00,56500000.00,43500000.00,49500000.00,50000000.00,0.00,0.00,21000000.00,20000000.00,33000000.00,24500000.00,21500000.00,23500000.00,34500000.00,16000000.00
3000000.00,81500000.00,0.00,73500000.00,53500000.00,39000000.00,30500000.00,22000000.00,0.00,0.00,27000000.00,23000000.00,20000000.00,16000000.00,28000000.00,29500000.00,28500000.00,27000000.00,0.00,0.00,150000000.00,138000000.00,31000000.00,55000000.00,55000000.00,46500000.00,25500000.00,35000000.00,0.00,0.00,25500000.00,20500000.00,26000000.00,30000000.00,25500000.00,25000000.00,26000000.00,37500000.00
0.00,0.00,81500000.00,58000000.00,46500000.00,27500000.00,37000000.00,24000000.00,0.00,0.00,29000000.00,20000000.00,24000000.00,24000000.00,28000000.00,53500000.00,39000000.00,33000000.00,0.00,0.00,216500000.00,90500000.00,28500000.00,52000000.00,35000000.00,66000000.00,28500000.00,24500000.00,0.00,0.00,30000000.00,27000000.00,31000000.00,21000000.00,29500000.00,26000000.00,32500000.00,31000000.00
0.00,0.00,3000000.00,4500000.00,1000000.00,6000000.00,4000000.00,5000000.00,0.00,0.00,2000000.00,7000000.00,12500000.00,6000000.00,13500000.00,3500000.00,4500000.00,56000000.00,0.00,0.00,4500000.00,1500000.00,0.00,0.00,6000000.00,4000000.00,6000000.00,4000000.00,0.00,0.00,6000000.00,2000000.00,1000000.00,4000000.00,13000000.00,27000000.00,18500000.00,176500000.00
