25000000.00,0.00,0.00,10000000.00,7500000.00,3000000.00,11000000.00,6500000.00,10000000.00,7000000.00,1000000.00,2000000.00,2000000.00,3000000.00,7500000.00,4000000.00,8500000.00,5000000.00,6000000.00,2000000.00,7000000.00,3000000.00,3000000.00,16000000.00,4000000.00,11000000.00,11000000.00,52000000.00,0.00
19000000.00,0.00,0.00,16000000.00,2500000.00,9000000.00,9000000.00,3500000.00,8000000.00,4000000.00,4000000.00,1000000.00,6000000.00,10000000.00,5500000.00,12500000.00,12000000.00,3000000.00,2000000.00,7500000.00,8000000.00,7000000.00,2000000.00,11000000.00,22000000.00,18500000.00,47000000.00,0.00,52000000.00
15000000.00,0.00,0.00,4000000.00,16000000.00,11000000.00,2000000.00,13000000.00,1000000.00,3500000.00,2000000.00,3000000.00,6000000.00,5500000.00,5500000.00,8000000.00,3000000.00,2000000.00,5000000.00,8500000.00,6500000.00,8500000.00,16000000.00,22000000.00,18000000.00,48000000.00,0.00,47000000.00,11000000.00
23500000.00,0.00,0.00,10000000.00,6500000.00,3000000.00,2000000.00,7500000.00,4000000.00,0.00,2000000.00,2000000.00,4000000.00,6000000.00,7500000.00,4000000.00,5500000.00,6000000.00,0.00,6000000.00,5000000.00,8500000.00,18000000.00,21000000.00,39500000.00,0.00,48000000.00,18500000.00,11000000.00
15000000.00,0.00,0.00,3000000.00,2500000.00,1000000.00,8000000.00,500000.00,5000000.00,7000000.00,3000000.00,4000000.00,9000000.00,8000000.00,7500000.00,3000000.00,5500000.00,4000000.00,11500000.00,15000000.00,11000000.00,23000000.00,12000000.00,29000000.00,0.00,39500000.00,18000000.00,22000000.00,4000000.00
18000000.00,0.00,0.00,1000000.00,1500000.00,13000000.00,2000000.00,3500000.00,4000000.00,1000000.00,11000000.00,6000000.00,15000000.00,8000000.00,6000000.00,3000000.00,2500000.00,11500000.00,12000000.00,7500000.00,28000000.00,12500000.00,27000000.00,0.00,29000000.00,21000000.00,22000000.00,11000000.00,16000000.00
11000000.00,0.00,0.00,0.00,8000000.00,3000000.00,2000000.00,4000000.00,0.00,10000000.00,8000000.00,8000000.00,6000000.00,10000000.00,6500000.00,8000000.00,24500000.00,8000000.00,10000000.00,25000000.00,11000000.00,33000000.00,0.00,27000000.00,12000000.00,18000000.00,16000000.00,2000000.00,3000000.00
11000000.00,0.00,0.00,5000000.00,2500000.00,4000000.00,500000.00,8000000.00,12000000.00,4000000.00,8000000.00,12000000.00,14500000.00,9000000.00,10000000.00,9000000.00,14500000.00,12000000.00,20000000.00,9500000.00,27000000.00,0.00,33000000.00,12500000.00,23000000.00,8500000.00,8500000.00,7000000.00,3000000.00
11000000.00,0.00,0.00,6000000.00,1000000.00,3000000.00,15000000.00,2000000.00,7000000.00,8000000.00,11000000.00,4000000.00,13500000.00,9000000.00,10500000.00,10000000.00,17500000.00,20000000.00,11000000.00,35500000.00,0.00,27000000.00,11000000.00,28000000.00,11000000.00,5000000.00,6500000.00,8000000.00,7000000.00
11000000.00,0.00,0.00,6000000.00,6000000.00,15000000.00,4500000.00,5000000.00,4500000.00,10500000.00,13000000.00,3000000.00,8500000.00,17500000.00,5500000.00,18500000.00,15500000.00,13000000.00,32500000.00,0.00,35500000.00,9500000.00,25000000.00,7500000.00,15000000.00,6000000.00,8500000.00,7500000.00,2000000.00
8000000.00,0.00,0.00,3000000.00,4000000.00,4000000.00,7000000.00,9500000.00,9000000.00,19000000.00,7000000.00,9000000.00,20000000.00,10000000.00,24500000.00,14000000.00,10500000.00,29000000.00,0.00,32500000.00,11000000.00,20000000.00,10000000.00,12000000.00,11500000.00,0.00,5000000.00,2000000.00,6000000.00
19500000.00,0.00,0.00,9000000.00,9500000.00,1000000.00,5000000.00,13000000.00,12000000.00,2000000.00,11000000.00,13500000.00,18000000.00,19000000.00,9500000.00,6000000.00,33500000.00,0.00,29000000.00,13000000.00,20000000.00,12000000.00,8000000.00,11500000.00,4000000.00,6000000.00,2000000.00,3000000.00,5000000.00
14500000.00,0.00,0.00,7500000.00,3000000.00,4500000.00,7000000.00,18000000.00,15500000.00,10000000.00,11500000.00,25500000.00,17500000.00,16500000.00,12500000.00,31000000.00,0.00,33500000.00,10500000.00,15500000.00,17500000.00,14500000.00,24500000.00,2500000.00,5500000.00,5500000.00,3000000.00,12000000.00,8500000.00
20500000.00,0.00,0.00,5000000.00,3000000.00,20000000.00,8000000.00,16500000.00,6000000.00,14000000.00,17000000.00,15000000.00,10000000.00,8000000.00,29000000.00,0.00,31000000.00,6000000.00,14000000.00,18500000.00,10000000.00,9000000.00,8000000.00,3000000.00,3000000.00,4000000.00,8000000.00,12500000.00,4000000.00
12000000.00,0.00,0.00,7500000.00,8000000.00,5000000.00,11500000.00,25000000.00,14000000.00,18500000.00,10000000.00,6500000.00,10500000.00,27000000.00,0.00,29000000.00,12500000.00,9500000.00,24500000.00,5500000.00,10500000.00,10000000.00,6500000.00,6000000.00,7500000.00,7500000.00,5500000.00,5500000.00,7500000.00
16000000.00,0.00,0.00,2000000.00,12500000.00,4000000.00,15000000.00,18000000.00,2000000.00,19000000.00,3000000.00,11000000.00,23000000.00,0.00,27000000.00,8000000.00,16500000.00,19000000.00,10000000.00,17500000.00,9000000.00,9000000.00,10000000.00,8000000.00,8000000.00,6000000.00,5500000.00,10000000.00,3000000.00
15000000.00,0.00,0.00,9000000.00,4500000.00,23000000.00,12500000.00,5000000.00,15000000.00,8000000.00,16000000.00,26500000.00,0.00,23000000.00,10500000.00,10000000.00,17500000.00,18000000.00,20000000.00,8500000.00,13500000.00,14500000.00,6000000.00,15000000.00,9000000.00,4000000.00,6000000.00,6000000.00,2000000.00
19000000.00,0.00,0.00,4000000.00,24000000.00,13000000.00,13000000.00,17000000.00,9000000.00,10000000.00,30000000.00,0.00,26500000.00,11000000.00,6500000.00,15000000.00,25500000.00,13500000.00,9000000.00,3000000.00,4000000.00,12000000.00,8000000.00,6000000.00,4000000.00,2000000.00,3000000.00,1000000.00,2000000.00
12500000.00,0.00,0.00,42000000.00,4500000.00,11000000.00,9000000.00,8500000.00,15500000.00,21000000.00,0.00,30000000.00,16000000.00,3000000.00,10000000.00,17000000.00,11500000.00,11000000.00,7000000.00,13000000.00,11000000.00,8000000.00,8000000.00,11000000.00,3000000.00,2000000.00,2000000.00,4000000.00,1000000.00
53000000.00,0.00,0.00,7000000.00,19000000.00,4000000.00,6000000.00,12500000.00,25000000.00,0.00,21000000.00,10000000.00,8000000.00,19000000.00,18500000.00,14000000.00,10000000.00,2000000.00,19000000.00,10500000.00,8000000.00,4000000.00,10000000.00,1000000.00,7000000.00,0.00,3500000.00,4000000.00,7000000.00
22000000.00,0.00,0.00,17000000.00,6500000.00,10000000.00,27000000.00,22500000.00,0.00,25000000.00,15500000.00,9000000.00,15000000.00,2000000.00,14000000.00,6000000.00,15500000.00,12000000.00,9000000.00,4500000.00,7000000.00,12000000.00,0.00,4000000.00,5000000.00,4000000.00,1000000.00,8000000.00,10000000.00
21000000.00,0.00,0.00,16500000.00,6000000.00,31000000.00,30500000.00,0.00,22500000.00,12500000.00,8500000.00,17000000.00,5000000.00,18000000.00,25000000.00,16500000.00,18000000.00,13000000.00,9500000.00,5000000.00,2000000.00,8000000.00,4000000.00,3500000.00,500000.00,7500000.00,13000000.00,3500000.00,6500000.00
13000000.00,0.00,0.00,13000000.00,21000000.00,24000000.00,0.00,30500000.00,27000000.00,6000000.00,9000000.00,13000000.00,12500000.00,15000000.00,11500000.00,8000000.00,7000000.00,5000000.00,7000000.00,4500000.00,15000000.00,500000.00,2000000.00,2000000.00,8000000.00,2000000.00,2000000.00,9000000.00,11000000.00
26000000.00,0.00,0.00,27000000.00,22000000.00,0.00,24000000.00,31000000.00,10000000.00,4000000.00,11000000.00,13000000.00,23000000.00,4000000.00,5000000.00,20000000.00,4500000.00,1000000.00,4000000.00,15000000.00,3000000.00,4000000.00,3000000.00,13000000.00,1000000.00,3000000.00,11000000.00,9000000.00,3000000.00
32000000.00,0.00,0.00,24500000.00,0.00,22000000.00,21000000.00,6000000.00,6500000.00,19000000.00,4500000.00,24000000.00,4500000.00,12500000.00,8000000.00,3000000.00,3000000.00,9500000.00,4000000.00,6000000.00,1000000.00,2500000.00,8000000.00,1500000.00,2500000.00,6500000.00,16000000.00,2500000.00,7500000.00
43000000.00,0.00,0.00,0.00,24500000.00,27000000.00,13000000.00,16500000.00,17000000.00,7000000.00,42000000.00,4000000.00,9000000.00,2000000.00,7500000.00,5000000.00,7500000.00,9000000.00,3000000.00,6000000.00,6000000.00,5000000.00,0.00,1000000.00,3000000.00,10000000.00,4000000.00,16000000.00,10000000.00
0.00,0.00,0.00,0.00,0.00,0.00,0.00,0.00,0.00,0.00,0.00,0.00,0.00,0.00,0.00,0.00,0.00,0.00,0.00,0.00,0.00,0.00,0.00,0.00,0.00,0.00,0.00,0.00,0.00
0.00,0.00,0.00,0.00,0.00,0.00,0.00,0.00,0.00,0.00,0.00,0.00,0.00,0.00,0.00,0.00,0.00,0.00,0.00,0.00,0.00,0.00,0.00,0.00,0.00,0.00,0.00,0.00,0.00
0.00,0.00,0.00,43000000.00,32000000.00,26000000.00,13000000.00,21000000.00,22000000.00,53000000.00,12500000.00,19000000.00,15000000.00,16000000.00,12000000.00,20500000.00,14500000.00,19500000.00,8000000.00,11000000.00,11000000.00,11000000.00,11000000.00,18000000.00,15000000.00,23500000.00,15000000.00,19000000.00,25000000.00
