100000000.00,16500000.00,16500000.00,24000000.00,37000000.00,26000000.00,15000000.00,13500000.00,0.00,0.00,23500000.00,13000000.00,16500000.00,31000000.00,21500000.00,39000000.00,24000000.00,23500000.00,0.00,0.00,14000000.00,14000000.00,20000000.00,20500000.00,19000000.00,29000000.00,18000000.00,27000000.00,0.00,0.00,37000000.00,17000000.00,36500000.00,20500000.00,19500000.00,20500000.00,41000000.00,0.00
54000000.00,17500000.00,23000000.00,35000000.00,35000000.00,32500000.00,27000000.00,25500000.00,0.00,0.00,31000000.00,24000000.00,27000000.00,42000000.00,39500000.00,36500000.00,32000000.00,109500000.00,0.00,0.00,26000000.00,24500000.00,31000000.00,26500000.00,36500000.00,37500000.00,24500000.00,33000000.00,0.00,0.00,46500000.00,31500000.00,40500000.00,28500000.00,36500000.00,43500000.00,0.00,41000000.00
61000000.00,22500000.00,23500000.00,16000000.00,41000000.00,29500000.00,14500000.00,13500000.00,0.00,0.00,29500000.00,17500000.00,21500000.00,30000000.00,19000000.00,96500000.00,19000000.00,20000000.00,0.00,0.00,20000000.00,26500000.00,15000000.00,27000000.00,32000000.00,29000000.00,22000000.00,28500000.00,0.00,0.00,35500000.00,16000000.00,39000000.00,24500000.00,17000000.00,0.00,43500000.00,20500000.00
50500000.00,19500000.00,21000000.00,31500000.00,37000000.00,27000000.00,25000000.00,16500000.00,0.00,0.00,31000000.00,20000000.00,17000000.00,30000000.00,87000000.00,49000000.00,26500000.00,32000000.00,0.00,0.00,19000000.00,25500000.00,24500000.00,16000000.00,20000000.00,31500000.00,21500000.00,22000000.00,0.00,0.00,33500000.00,17500000.00,30000000.00,19500000.00,0.00,17000000.00,36500000.00,19500000.00
50500000.00,25000000.00,21500000.00,29500000.00,33000000.00,34500000.00,20500000.00,18000000.00,0.00,0.00,32000000.00,17500000.00,19500000.00,108000000.00,30000000.00,27000000.00,19500000.00,17000000.00,0.00,0.00,20000000.00,22000000.00,22500000.00,21000000.00,24000000.00,29000000.00,27000000.00,25500000.00,0.00,0.00,42500000.00,20500000.00,36500000.00,0.00,19500000.00,24500000.00,28500000.00,20500000.00
61000000.00,30000000.00,38500000.00,31000000.00,35000000.00,43500000.00,32500000.00,27000000.00,0.00,0.00,42500000.00,32500000.00,96500000.00,46000000.00,48500000.00,38000000.00,38000000.00,30500000.00,0.00,0.00,35500000.00,25500000.00,28500000.00,33500000.00,27500000.00,36500000.00,32500000.00,47000000.00,0.00,0.00,47000000.00,28500000.00,0.00,36500000.00,30000000.00,39000000.00,40500000.00,36500000.00
43500000.00,22500000.00,23500000.00,13000000.00,27000000.00,26000000.00,16000000.00,22000000.00,0.00,0.00,19500000.00,69500000.00,27500000.00,25500000.00,21500000.00,29500000.00,18500000.00,22000000.00,0.00,0.00,20000000.00,8500000.00,18000000.00,18500000.00,22500000.00,21500000.00,17000000.00,23000000.00,0.00,0.00,30000000.00,0.00,28500000.00,20500000.00,17500000.00,16000000.00,31500000.00,17000000.00
64000000.00,19000000.00,26500000.00,37000000.00,54000000.00,42000000.00,28000000.00,27500000.00,0.00,0.00,91500000.00,40500000.00,32000000.00,48500000.00,48000000.00,44500000.00,38000000.00,35000000.00,0.00,0.00,37500000.00,32500000.00,44500000.00,39000000.00,38000000.00,37000000.00,36000000.00,46500000.00,0.00,0.00,0.00,30000000.00,47000000.00,42500000.00,33500000.00,35500000.00,46500000.00,37000000.00
0.00,0.00,0.00,0.00,0.00,0.00,0.00,0.00,0.00,0.00,0.00,0.00,0.00,0.00,0.00,0.00,0.00,0.00,0.00,0.00,0.00,0.00,0.00,0.00,0.00,0.00,0.00,0.00,0.00,0.00,0.00,0.00,0.00,0.00,0.00,0.00,0.00,0.00
0.00,0.00,0.00,0.00,0.00,0.00,0.00,0.00,0.00,0.00,0.00,0.00,0.00,0.00,0.00,0.00,0.00,0.00,0.00,0.00,0.00,0.00,0.00,0.00,0.00,0.00,0.00,0.00,0.00,0.00,0.00,0.00,0.00,0.00,0.00,0.00,0.00,0.00
47500000.00,20000000.00,27000000.00,23000000.00,35500000.00,34000000.00,25500000.00,41500000.00,0.00,0.00,36500000.00,27000000.00,17500000.00,33500000.00,31500000.00,35500000.00,64500000.00,26500000.00,0.00,0.00,22500000.00,22500000.00,33000000.00,22000000.00,24000000.00,38000000.00,48000000.00,0.00,0.00,0.00,46500000.00,23000000.00,47000000.00,25500000.00,22000000.00,28500000.00,33000000.00,27000000.00
45500000.00,16000000.00,24500000.00,14500000.00,28000000.00,24000000.00,15000000.00,63500000.00,0.00,0.00,23500000.00,27000000.00,20500000.00,28000000.00,23000000.00,26000000.00,47500000.00,18000000.00,0.00,0.00,18000000.00,13500000.00,12500000.00,13500000.00,30500000.00,32000000.00,0.00,48000000.00,0.00,0.00,36000000.00,17000000.00,32500000.00,27000000.00,21500000.00,22000000.00,24500000.00,18000000.00
70000000.00,36500000.00,32500000.00,23000000.00,43500000.00,52000000.00,87000000.00,17000000.00,0.00,0.00,33500000.00,28000000.00,29500000.00,36000000.00,33500000.00,38500000.00,36000000.00,24000000.00,0.00,0.00,33000000.00,30500000.00,20000000.00,34500000.00,37000000.00,0.00,32000000.00,38000000.00,0.00,0.00,37000000.00,21500000.00,36500000.00,29000000.00,31500000.00,29000000.00,37500000.00,29000000.00
40500000.00,12500000.00,21500000.00,11000000.00,34500000.00,96000000.00,18500000.00,15500000.00,0.00,0.00,31500000.00,19500000.00,27000000.00,33000000.00,24500000.00,28500000.00,18500000.00,24000000.00,0.00,0.00,16500000.00,29000000.00,32000000.00,21000000.00,0.00,37000000.00,30500000.00,24000000.00,0.00,0.00,38000000.00,22500000.00,27500000.00,24000000.00,20000000.00,32000000.00,36500000.00,19000000.00
46500000.00,20000000.00,16000000.00,15500000.00,135000000.00,40500000.00,16500000.00,14000000.00,0.00,0.00,12000000.00,15000000.00,19000000.00,18500000.00,18500000.00,21500000.00,21500000.00,16000000.00,0.00,0.00,23500000.00,14500000.00,16000000.00,0.00,21000000.00,34500000.00,13500000.00,22000000.00,0.00,0.00,39000000.00,18500000.00,33500000.00,21000000.00,16000000.00,27000000.00,26500000.00,20500000.00
41000000.00,13500000.00,23500000.00,89000000.00,25000000.00,29000000.00,21000000.00,15000000.00,0.00,0.00,22500000.00,9000000.00,15500000.00,34500000.00,14000000.00,23000000.00,15000000.00,16000000.00,0.00,0.00,16000000.00,14500000.00,0.00,16000000.00,32000000.00,20000000.00,12500000.00,33000000.00,0.00,0.00,44500000.00,18000000.00,28500000.00,22500000.00,24500000.00,15000000.00,31000000.00,20000000.00
46500000.00,19500000.00,86500000.00,13500000.00,24000000.00,38000000.00,16500000.00,12000000.00,0.00,0.00,31500000.00,18000000.00,12500000.00,24000000.00,17000000.00,19500000.00,19000000.00,13500000.00,0.00,0.00,26000000.00,0.00,14500000.00,14500000.00,29000000.00,30500000.00,13500000.00,22500000.00,0.00,0.00,32500000.00,8500000.00,25500000.00,22000000.00,25500000.00,26500000.00,24500000.00,14000000.00
46500000.00,86000000.00,23000000.00,29000000.00,23500000.00,29500000.00,9000000.00,11000000.00,0.00,0.00,20500000.00,15500000.00,14000000.00,28000000.00,17000000.00,29500000.00,24500000.00,14500000.00,0.00,0.00,0.00,26000000.00,16000000.00,23500000.00,16500000.00,33000000.00,18000000.00,22500000.00,0.00,0.00,37500000.00,20000000.00,35500000.00,20000000.00,19000000.00,20000000.00,26000000.00,14000000.00
0.00,0.00,0.00,0.00,0.00,0.00,0.00,0.00,0.00,0.00,0.00,0.00,0.00,0.00,0.00,0.00,0.00,0.00,0.00,0.00,0.00,0.00,0.00,0.00,0.00,0.00,0.00,0.00,0.00,0.00,0.00,0.00,0.00,0.00,0.00,0.00,0.00,0.00
0.00,0.00,0.00,0.00,0.00,0.00,0.00,0.00,0.00,0.00,0.00,0.00,0.00,0.00,0.00,0.00,0.00,0.00,0.00,0.00,0.00,0.00,0.00,0.00,0.00,0.00,0.00,0.00,0.00,0.00,0.00,0.00,0.00,0.00,0.00,0.00,0.00,0.00
40500000.00,11000000.00,14000000.00,13000000.00,33000000.00,28000000.00,10000000.00,21000000.00,0.00,0.00,28000000.00,10000000.00,17000000.00,26500000.00,17500000.00,26000000.00,16000000.00,0.00,0.00,0.00,14500000.00,13500000.00,16000000.00,16000000.00,24000000.00,24000000.00,18000000.00,26500000.00,0.00,0.00,35000000.00,22000000.00,30500000.00,17000000.00,32000000.00,20000000.00,109500000.00,23500000.00
43500000.00,14500000.00,21500000.00,21500000.00,28000000.00,18000000.00,11500000.00,27000000.00,0.00,0.00,30500000.00,10000000.00,21000000.00,25000000.00,18500000.00,26500000.00,0.00,16000000.00,0.00,0.00,24500000.00,19000000.00,15000000.00,21500000.00,18500000.00,36000000.00,47500000.00,64500000.00,0.00,0.00,38000000.00,18500000.00,38000000.00,19500000.00,26500000.00,19000000.00,32000000.00,24000000.00
54000000.00,19000000.00,27000000.00,28000000.00,31000000.00,41000000.00,24500000.00,18500000.00,0.00,0.00,37000000.00,28000000.00,22500000.00,29000000.00,27500000.00,0.00,26500000.00,26000000.00,0.00,0.00,29500000.00,19500000.00,23000000.00,21500000.00,28500000.00,38500000.00,26000000.00,35500000.00,0.00,0.00,44500000.00,29500000.00,38000000.00,27000000.00,49000000.00,96500000.00,36500000.00,39000000.00
42500000.00,13500000.00,21500000.00,20000000.00,40000000.00,32500000.00,18500000.00,21000000.00,0.00,0.00,32000000.00,19000000.00,20500000.00,37000000.00,0.00,27500000.00,18500000.00,17500000.00,0.00,0.00,17000000.00,17000000.00,14000000.00,18500000.00,24500000.00,33500000.00,23000000.00,31500000.00,0.00,0.00,48000000.00,21500000.00,48500000.00,30000000.00,87000000.00,19000000.00,39500000.00,21500000.00
57500000.00,31000000.00,24500000.00,34500000.00,44500000.00,40000000.00,26500000.00,22000000.00,0.00,0.00,37000000.00,35000000.00,13500000.00,0.00,37000000.00,29000000.00,25000000.00,26500000.00,0.00,0.00,28000000.00,24000000.00,34500000.00,18500000.00,33000000.00,36000000.00,28000000.00,33500000.00,0.00,0.00,48500000.00,25500000.00,46000000.00,108000000.00,30000000.00,30000000.00,42000000.00,31000000.00
45500000.00,11000000.00,16000000.00,23000000.00,28000000.00,25500000.00,15500000.00,12500000.00,0.00,0.00,28000000.00,14500000.00,0.00,13500000.00,20500000.00,22500000.00,21000000.00,17000000.00,0.00,0.00,14000000.00,12500000.00,15500000.00,19000000.00,27000000.00,29500000.00,20500000.00,17500000.00,0.00,0.00,32000000.00,27500000.00,96500000.00,19500000.00,17000000.00,21500000.00,27000000.00,16500000.00
37500000.00,20000000.00,13000000.00,28000000.00,33500000.00,30000000.00,11000000.00,8500000.00,0.00,0.00,24000000.00,0.00,14500000.00,35000000.00,19000000.00,28000000.00,10000000.00,10000000.00,0.00,0.00,15500000.00,18000000.00,9000000.00,15000000.00,19500000.00,28000000.00,27000000.00,27000000.00,0.00,0.00,40500000.00,69500000.00,32500000.00,17500000.00,20000000.00,17500000.00,24000000.00,13000000.00
54000000.00,11500000.00,23500000.00,19500000.00,35000000.00,33500000.00,22000000.00,25000000.00,0.00,0.00,0.00,24000000.00,28000000.00,37000000.00,32000000.00,37000000.00,30500000.00,28000000.00,0.00,0.00,20500000.00,31500000.00,22500000.00,12000000.00,31500000.00,33500000.00,23500000.00,36500000.00,0.00,0.00,91500000.00,19500000.00,42500000.00,32000000.00,31000000.00,29500000.00,31000000.00,23500000.00
0.00,0.00,0.00,0.00,0.00,0.00,0.00,0.00,0.00,0.00,0.00,0.00,0.00,0.00,0.00,0.00,0.00,0.00,0.00,0.00,0.00,0.00,0.00,0.00,0.00,0.00,0.00,0.00,0.00,0.00,0.00,0.00,0.00,0.00,0.00,0.00,0.00,0.00
0.00,0.00,0.00,0.00,0.00,0.00,0.00,0.00,0.00,0.00,0.00,0.00,0.00,0.00,0.00,0.00,0.00,0.00,0.00,0.00,0.00,0.00,0.00,0.00,0.00,0.00,0.00,0.00,0.00,0.00,0.00,0.00,0.00,0.00,0.00,0.00,0.00,0.00
70500000.00,10000000.00,21500000.00,17000000.00,28000000.00,23500000.00,25000000.00,0.00,0.00,0.00,25000000.00,8500000.00,12500000.00,22000000.00,21000000.00,18500000.00,27000000.00,21000000.00,0.00,0.00,11000000.00,12000000.00,15000000.00,14000000.00,15500000.00,17000000.00,63500000.00,41500000.00,0.00,0.00,27500000.00,22000000.00,27000000.00,18000000.00,16500000.00,13500000.00,25500000.00,13500000.00
49500000.00,16000000.00,24500000.00,13500000.00,24000000.00,32500000.00,0.00,25000000.00,0.00,0.00,22000000.00,11000000.00,15500000.00,26500000.00,18500000.00,24500000.00,11500000.00,10000000.00,0.00,0.00,9000000.00,16500000.00,21000000.00,16500000.00,18500000.00,87000000.00,15000000.00,25500000.00,0.00,0.00,28000000.00,16000000.00,32500000.00,20500000.00,25000000.00,14500000.00,27000000.00,15000000.00
57500000.00,25000000.00,36000000.00,35000000.00,46000000.00,0.00,32500000.00,23500000.00,0.00,0.00,33500000.00,30000000.00,25500000.00,40000000.00,32500000.00,41000000.00,18000000.00,28000000.00,0.00,0.00,29500000.00,38000000.00,29000000.00,40500000.00,96000000.00,52000000.00,24000000.00,34000000.00,0.00,0.00,42000000.00,26000000.00,43500000.00,34500000.00,27000000.00,29500000.00,32500000.00,26000000.00
77000000.00,25000000.00,22500000.00,24000000.00,0.00,46000000.00,24000000.00,28000000.00,0.00,0.00,35000000.00,33500000.00,28000000.00,44500000.00,40000000.00,31000000.00,28000000.00,33000000.00,0.00,0.00,23500000.00,24000000.00,25000000.00,135000000.00,34500000.00,43500000.00,28000000.00,35500000.00,0.00,0.00,54000000.00,27000000.00,35000000.00,33000000.00,37000000.00,41000000.00,35000000.00,37000000.00
43000000.00,22500000.00,14500000.00,0.00,24000000.00,35000000.00,13500000.00,17000000.00,0.00,0.00,19500000.00,28000000.00,23000000.00,34500000.00,20000000.00,28000000.00,21500000.00,13000000.00,0.00,0.00,29000000.00,13500000.00,89000000.00,15500000.00,11000000.00,23000000.00,14500000.00,23000000.00,0.00,0.00,37000000.00,13000000.00,31000000.00,29500000.00,31500000.00,16000000.00,35000000.00,24000000.00
45000000.00,11500000.00,0.00,14500000.00,22500000.00,36000000.00,24500000.00,21500000.00,0.00,0.00,23500000.00,13000000.00,16000000.00,24500000.00,21500000.00,27000000.00,21500000.00,14000000.00,0.00,0.00,23000000.00,86500000.00,23500000.00,16000000.00,21500000.00,32500000.00,24500000.00,27000000.00,0.00,0.00,26500000.00,23500000.00,38500000.00,21500000.00,21000000.00,23500000.00,23000000.00,16500000.00
47500000.00,0.00,11500000.00,22500000.00,25000000.00,25000000.00,16000000.00,10000000.00,0.00,0.00,11500000.00,20000000.00,11000000.00,31000000.00,13500000.00,19000000.00,14500000.00,11000000.00,0.00,0.00,86000000.00,19500000.00,13500000.00,20000000.00,12500000.00,36500000.00,16000000.00,20000000.00,0.00,0.00,19000000.00,22500000.00,30000000.00,25000000.00,19500000.00,22500000.00,17500000.00,16500000.00
0.00,47500000.00,45000000.00,43000000.00,77000000.00,57500000.00,49500000.00,70500000.00,0.00,0.00,54000000.00,37500000.00,45500000.00,57500000.00,42500000.00,54000000.00,43500000.00,40500000.00,0.00,0.00,46500000.00,46500000.00,41000000.00,46500000.00,40500000.00,70000000.00,45500000.00,47500000.00,0.00,0.00,64000000.00,43500000.00,61000000.00,50500000.00,50500000.00,61000000.00,54000000.00,100000000.00
