2000000.00,1000000.00,1000000.00,2000000.00,2000000.00,6000000.00,4000000.00,0.00,0.00,0.00,0.00,500000.00,1000000.00,1000000.00,0.00,4000000.00,1000000.00,0.00,0.00,0.00,5000000.00,3000000.00,0.00,0.00,2000000.00,3000000.00,3000000.00,2000000.00,0.00,0.00,0.00,1000000.00,0.00,1000000.00,0.00,0.00,1000000.00,0.00
3500000.00,1000000.00,0.00,1500000.00,2000000.00,4000000.00,2000000.00,1500000.00,0.00,0.00,3000000.00,0.00,500000.00,3000000.00,500000.00,1500000.00,500000.00,500000.00,0.00,0.00,1000000.00,3500000.00,2000000.00,0.00,0.00,5500000.00,0.00,2500000.00,0.00,0.00,0.00,2000000.00,500000.00,1500000.00,1000000.00,2500000.00,0.00,1000000.00
9000000.00,0.00,0.00,0.00,0.00,2500000.00,2000000.00,1000000.00,0.00,0.00,1000000.00,0.00,1000000.00,0.00,0.00,500000.00,2000000.00,0.00,0.00,0.00,1000000.00,1000000.00,1000000.00,2000000.00,0.00,0.00,1000000.00,2000000.00,0.00,0.00,0.00,2000000.00,1000000.00,0.00,0.00,0.00,2500000.00,0.00
1000000.00,0.00,1000000.00,0.00,0.00,0.00,0.00,0.00,0.00,0.00,0.00,1000000.00,0.00,0.00,0.00,500000.00,0.00,0.00,0.00,0.00,0.00,1000000.00,0.00,0.00,0.00,0.00,0.00,0.00,0.00,0.00,0.00,0.00,0.00,0.00,0.00,0.00,1000000.00,0.00
0.00,1000000.00,1000000.00,1000000.00,0.00,3000000.00,7000000.00,1000000.00,0.00,0.00,2500000.00,0.00,2000000.00,500000.00,0.00,500000.00,0.00,0.00,0.00,0.00,0.00,0.00,2000000.00,0.00,0.00,4000000.00,0.00,1500000.00,0.00,0.00,0.00,0.00,0.00,0.00,0.00,0.00,1500000.00,1000000.00
1000000.00,0.00,1000000.00,2000000.00,3000000.00,5000000.00,1000000.00,0.00,0.00,0.00,0.00,0.00,1000000.00,0.00,0.00,1500000.00,1500000.00,0.00,0.00,0.00,2500000.00,1000000.00,1000000.00,0.00,0.00,1500000.00,2000000.00,0.00,0.00,0.00,0.00,1000000.00,0.00,0.00,0.00,1000000.00,500000.00,0.00
1000000.00,0.00,0.00,1000000.00,5000000.00,3000000.00,4000000.00,2000000.00,0.00,0.00,0.00,0.00,2000000.00,4000000.00,0.00,1000000.00,0.00,0.00,0.00,0.00,2000000.00,3000000.00,2000000.00,1000000.00,0.00,3000000.00,5000000.00,2000000.00,0.00,0.00,0.00,0.00,1000000.00,0.00,0.00,2000000.00,2000000.00,1000000.00
0.00,0.00,0.00,0.00,0.00,0.00,0.00,1000000.00,0.00,0.00,0.00,0.00,0.00,0.00,0.00,0.00,0.00,0.00,0.00,0.00,1000000.00,0.00,0.00,0.00,0.00,0.00,0.00,0.00,0.00,0.00,0.00,0.00,0.00,0.00,0.00,0.00,0.00,0.00
0.00,0.00,0.00,0.00,0.00,0.00,0.00,0.00,0.00,0.00,0.00,0.00,0.00,0.00,0.00,0.00,0.00,0.00,0.00,0.00,0.00,0.00,0.00,0.00,0.00,0.00,0.00,0.00,0.00,0.00,0.00,0.00,0.00,0.00,0.00,0.00,0.00,0.00
0.00,0.00,0.00,0.00,0.00,0.00,0.00,0.00,0.00,0.00,0.00,0.00,0.00,0.00,0.00,0.00,0.00,0.00,0.00,0.00,0.00,0.00,0.00,0.00,0.00,0.00,0.00,0.00,0.00,0.00,0.00,0.00,0.00,0.00,0.00,0.00,0.00,0.00
0.00,0.00,1000000.00,1000000.00,2000000.00,5000000.00,3000000.00,2000000.00,0.00,0.00,7000000.00,0.00,1000000.00,1500000.00,0.00,0.00,0.00,0.00,0.00,0.00,2000000.00,1000000.00,3000000.00,1000000.00,0.00,3000000.00,0.00,0.00,0.00,0.00,0.00,2000000.00,0.00,1500000.00,0.00,2000000.00,2500000.00,2000000.00
2000000.00,1000000.00,3000000.00,1000000.00,3000000.00,2000000.00,3000000.00,2000000.00,0.00,0.00,5000000.00,0.00,1000000.00,5000000.00,0.00,3000000.00,0.00,0.00,0.00,0.00,2000000.00,2000000.00,1000000.00,1500000.00,0.00,2000000.00,0.00,0.00,0.00,0.00,0.00,5000000.00,2000000.00,0.00,0.00,1000000.00,0.00,3000000.00
4500000.00,3000000.00,500000.00,3000000.00,1000000.00,2000000.00,1000000.00,6000000.00,0.00,0.00,1000000.00,500000.00,3000000.00,5500000.00,500000.00,1500000.00,1000000.00,0.00,0.00,0.00,5000000.00,3000000.00,3000000.00,2000000.00,5000000.00,0.00,2000000.00,3000000.00,0.00,0.00,0.00,3000000.00,1500000.00,4000000.00,0.00,0.00,5500000.00,3000000.00
0.00,0.00,0.00,1000000.00,2000000.00,6000000.00,3000000.00,0.00,0.00,0.00,2500000.00,0.00,1000000.00,0.00,0.00,0.00,0.00,0.00,0.00,0.00,1000000.00,0.00,1000000.00,0.00,0.00,5000000.00,0.00,0.00,0.00,0.00,0.00,0.00,0.00,0.00,0.00,0.00,0.00,2000000.00
2000000.00,1000000.00,2000000.00,1000000.00,2000000.00,1000000.00,2000000.00,0.00,0.00,0.00,1000000.00,0.00,0.00,0.00,0.00,1000000.00,0.00,0.00,0.00,0.00,1000000.00,0.00,0.00,0.00,0.00,2000000.00,1500000.00,1000000.00,0.00,0.00,0.00,1000000.00,0.00,0.00,0.00,2000000.00,0.00,0.00
1000000.00,3000000.00,0.00,0.00,0.00,2500000.00,1000000.00,2000000.00,0.00,0.00,0.00,0.00,0.00,1000000.00,0.00,1500000.00,0.00,0.00,0.00,0.00,0.00,1000000.00,0.00,0.00,1000000.00,3000000.00,1000000.00,3000000.00,0.00,0.00,0.00,2000000.00,1000000.00,2000000.00,0.00,1000000.00,2000000.00,0.00
0.00,1000000.00,500000.00,0.00,1000000.00,3000000.00,2000000.00,0.00,0.00,0.00,1000000.00,0.00,0.00,1000000.00,0.00,0.00,500000.00,0.00,0.00,0.00,4500000.00,0.00,1000000.00,0.00,0.00,3000000.00,2000000.00,1000000.00,0.00,0.00,0.00,3000000.00,1000000.00,0.00,1000000.00,1000000.00,3500000.00,3000000.00
1500000.00,2500000.00,0.00,2000000.00,16500000.00,1000000.00,3000000.00,0.00,0.00,0.00,0.00,0.00,2500000.00,1000000.00,0.00,3000000.00,0.00,1000000.00,0.00,0.00,0.00,4500000.00,0.00,1000000.00,1000000.00,5000000.00,2000000.00,2000000.00,0.00,0.00,1000000.00,2000000.00,2500000.00,0.00,0.00,1000000.00,1000000.00,5000000.00
0.00,0.00,0.00,0.00,0.00,0.00,0.00,0.00,0.00,0.00,0.00,0.00,0.00,0.00,0.00,0.00,0.00,0.00,0.00,0.00,0.00,0.00,0.00,0.00,0.00,0.00,0.00,0.00,0.00,0.00,0.00,0.00,0.00,0.00,0.00,0.00,0.00,0.00
0.00,0.00,0.00,0.00,0.00,0.00,0.00,0.00,0.00,0.00,0.00,0.00,0.00,0.00,0.00,0.00,0.00,0.00,0.00,0.00,0.00,0.00,0.00,0.00,0.00,0.00,0.00,0.00,0.00,0.00,0.00,0.00,0.00,0.00,0.00,0.00,0.00,0.00
0.00,0.00,0.00,0.00,0.00,0.00,0.00,0.00,0.00,0.00,0.00,0.00,0.00,0.00,0.00,500000.00,0.00,0.00,0.00,0.00,1000000.00,0.00,0.00,0.00,0.00,0.00,0.00,0.00,0.00,0.00,0.00,0.00,0.00,0.00,0.00,0.00,500000.00,0.00
0.00,0.00,0.00,0.00,1000000.00,1000000.00,2000000.00,500000.00,0.00,0.00,1000000.00,0.00,0.00,0.00,0.00,0.00,0.00,0.00,0.00,0.00,0.00,500000.00,0.00,0.00,0.00,1000000.00,0.00,0.00,0.00,0.00,0.00,0.00,1500000.00,0.00,0.00,2000000.00,500000.00,1000000.00
6000000.00,0.00,0.00,2500000.00,1000000.00,5000000.00,1000000.00,1000000.00,0.00,0.00,4000000.00,0.00,500000.00,2000000.00,500000.00,0.00,0.00,500000.00,0.00,0.00,3000000.00,0.00,1500000.00,1000000.00,0.00,1500000.00,3000000.00,0.00,0.00,0.00,0.00,1000000.00,1500000.00,500000.00,500000.00,500000.00,1500000.00,4000000.00
0.00,0.00,0.00,0.00,0.00,0.00,0.00,0.00,0.00,0.00,0.00,0.00,0.00,0.00,0.00,500000.00,0.00,0.00,0.00,0.00,0.00,0.00,0.00,0.00,0.00,500000.00,0.00,0.00,0.00,0.00,0.00,0.00,0.00,0.00,0.00,0.00,500000.00,0.00
1000000.00,0.00,0.00,0.00,1000000.00,1000000.00,4000000.00,3000000.00,0.00,0.00,0.00,0.00,0.00,0.00,0.00,2000000.00,0.00,0.00,0.00,0.00,1000000.00,1000000.00,1000000.00,0.00,0.00,5500000.00,5000000.00,1500000.00,0.00,0.00,0.00,4000000.00,0.00,500000.00,0.00,0.00,3000000.00,1000000.00
0.00,0.00,0.00,1000000.00,0.00,3000000.00,1000000.00,1000000.00,0.00,0.00,6000000.00,0.00,0.00,0.00,0.00,500000.00,0.00,0.00,0.00,0.00,2500000.00,0.00,0.00,0.00,1000000.00,3000000.00,1000000.00,1000000.00,0.00,0.00,0.00,2000000.00,1000000.00,2000000.00,0.00,1000000.00,500000.00,1000000.00
0.00,0.00,0.00,0.00,0.00,0.00,0.00,0.00,0.00,0.00,0.00,0.00,0.00,0.00,0.00,0.00,0.00,0.00,0.00,0.00,0.00,0.00,0.00,0.00,0.00,500000.00,0.00,0.00,0.00,0.00,0.00,0.00,0.00,0.00,1000000.00,0.00,0.00,500000.00
2000000.00,0.00,1000000.00,0.00,4000000.00,2000000.00,1000000.00,2000000.00,0.00,0.00,0.00,0.00,6000000.00,0.00,0.00,4000000.00,1000000.00,0.00,0.00,0.00,0.00,1000000.00,0.00,1000000.00,2500000.00,1000000.00,5000000.00,7000000.00,0.00,0.00,0.00,0.00,0.00,2500000.00,0.00,1000000.00,3000000.00,0.00
0.00,0.00,0.00,0.00,0.00,0.00,0.00,0.00,0.00,0.00,0.00,0.00,0.00,0.00,0.00,0.00,0.00,0.00,0.00,0.00,0.00,0.00,0.00,0.00,0.00,0.00,0.00,0.00,0.00,0.00,0.00,0.00,0.00,0.00,0.00,0.00,0.00,0.00
0.00,0.00,0.00,0.00,0.00,0.00,0.00,0.00,0.00,0.00,0.00,0.00,0.00,0.00,0.00,0.00,0.00,0.00,0.00,0.00,0.00,0.00,0.00,0.00,0.00,0.00,0.00,0.00,0.00,0.00,0.00,0.00,0.00,0.00,0.00,0.00,0.00,0.00
1000000.00,1000000.00,0.00,1000000.00,2500000.00,4000000.00,4000000.00,0.00,0.00,0.00,2000000.00,0.00,1000000.00,3000000.00,0.00,1000000.00,500000.00,0.00,0.00,0.00,0.00,0.00,2000000.00,0.00,0.00,6000000.00,2000000.00,2000000.00,0.00,0.00,1000000.00,2000000.00,0.00,1000000.00,0.00,1000000.00,1500000.00,0.00
1000000.00,1000000.00,3000000.00,2000000.00,2000000.00,3000000.00,0.00,4000000.00,0.00,0.00,1000000.00,0.00,1000000.00,4000000.00,0.00,1000000.00,2000000.00,0.00,0.00,0.00,3000000.00,2000000.00,1000000.00,2000000.00,3000000.00,1000000.00,3000000.00,3000000.00,0.00,0.00,0.00,4000000.00,1000000.00,7000000.00,0.00,2000000.00,2000000.00,4000000.00
1000000.00,6000000.00,1000000.00,4000000.00,0.00,0.00,3000000.00,4000000.00,0.00,0.00,2000000.00,0.00,3000000.00,1000000.00,0.00,5000000.00,1000000.00,0.00,0.00,0.00,1000000.00,3000000.00,2500000.00,1000000.00,6000000.00,2000000.00,2000000.00,5000000.00,0.00,0.00,0.00,3000000.00,5000000.00,3000000.00,0.00,2500000.00,4000000.00,6000000.00
500000.00,2000000.00,1000000.00,500000.00,0.00,0.00,2000000.00,2500000.00,0.00,0.00,4000000.00,0.00,0.00,1000000.00,0.00,1000000.00,1000000.00,0.00,0.00,0.00,16500000.00,1000000.00,0.00,2000000.00,2000000.00,1000000.00,3000000.00,2000000.00,0.00,0.00,0.00,5000000.00,3000000.00,0.00,0.00,0.00,2000000.00,2000000.00
0.00,2000000.00,0.00,0.00,500000.00,4000000.00,2000000.00,1000000.00,0.00,0.00,0.00,0.00,1000000.00,0.00,0.00,2500000.00,0.00,0.00,0.00,0.00,2000000.00,0.00,0.00,1000000.00,1000000.00,3000000.00,1000000.00,1000000.00,0.00,0.00,0.00,1000000.00,2000000.00,1000000.00,0.00,0.00,1500000.00,2000000.00
2000000.00,0.00,0.00,0.00,1000000.00,1000000.00,3000000.00,0.00,0.00,0.00,1000000.00,0.00,0.00,0.00,0.00,0.00,0.00,0.00,0.00,0.00,0.00,500000.00,0.00,2000000.00,0.00,500000.00,3000000.00,1000000.00,0.00,0.00,0.00,0.00,1000000.00,1000000.00,1000000.00,0.00,0.00,1000000.00
0.00,0.00,0.00,2000000.00,2000000.00,6000000.00,1000000.00,1000000.00,0.00,0.00,0.00,0.00,0.00,0.00,0.00,0.00,0.00,0.00,0.00,0.00,2500000.00,1000000.00,3000000.00,1000000.00,0.00,3000000.00,1000000.00,0.00,0.00,0.00,0.00,0.00,0.00,1000000.00,0.00,0.00,1000000.00,1000000.00
0.00,0.00,2000000.00,0.00,500000.00,1000000.00,1000000.00,1000000.00,0.00,0.00,2000000.00,0.00,0.00,1000000.00,0.00,6000000.00,0.00,0.00,0.00,0.00,1500000.00,0.00,1000000.00,2000000.00,0.00,4500000.00,2000000.00,0.00,0.00,0.00,0.00,1000000.00,1000000.00,0.00,1000000.00,9000000.00,3500000.00,2000000.00
