0.00,0.00,0.00,0.00,0.00,0.00,0.00,0.00,0.00,0.00,0.00,0.00,0.00,0.00,0.00,0.00,0.00,0.00,0.00,0.00,0.00,0.00,0.00,0.00,0.00,0.00,0.00,0.00,0.00,0.00,0.00,0.00,0.00,0.00,0.00,0.00,0.00,0.00,0.00,0.00
0.00,0.00,0.00,0.00,0.00,0.00,0.00,0.00,0.00,0.00,0.00,0.00,0.00,0.00,0.00,0.00,0.00,0.00,0.00,0.00,0.00,0.00,0.00,0.00,0.00,0.00,0.00,0.00,0.00,0.00,0.00,0.00,0.00,0.00,0.00,0.00,0.00,0.00,0.00,0.00
0.00,0.00,0.00,0.00,0.00,0.00,0.00,0.00,0.00,0.00,0.00,1000000.00,0.00,1000000.00,0.00,0.00,1000000.00,0.00,0.00,1000000.00,0.00,0.00,0.00,0.00,0.00,0.00,0.00,0.00,0.00,0.00,0.00,0.00,0.00,0.00,0.00,0.00,0.00,0.00,0.00,0.00
0.00,0.00,0.00,0.00,0.00,0.00,0.00,0.00,0.00,0.00,0.00,1000000.00,0.00,0.00,0.00,0.00,0.00,0.00,0.00,0.00,0.00,0.00,0.00,0.00,0.00,0.00,0.00,0.00,0.00,0.00,0.00,0.00,0.00,1000000.00,0.00,0.00,0.00,0.00,0.00,0.00
0.00,0.00,0.00,0.00,0.00,0.00,0.00,0.00,0.00,0.00,0.00,1000000.00,0.00,1000000.00,0.00,0.00,0.00,0.00,0.00,0.00,0.00,0.00,0.00,0.00,0.00,0.00,0.00,0.00,0.00,0.00,0.00,0.00,0.00,0.00,0.00,0.00,0.00,0.00,0.00,0.00
0.00,0.00,0.00,2000000.00,0.00,0.00,0.00,1000000.00,0.00,0.00,2000000.00,3000000.00,0.00,2000000.00,0.00,0.00,0.00,0.00,0.00,0.00,0.00,0.00,0.00,0.00,0.00,0.00,0.00,0.00,1000000.00,0.00,0.00,0.00,1000000.00,0.00,0.00,0.00,0.00,0.00,0.00,0.00
1000000.00,0.00,0.00,1000000.00,0.00,0.00,0.00,0.00,12000000.00,0.00,1000000.00,0.00,0.00,3000000.00,0.00,0.00,0.00,0.00,0.00,1000000.00,1000000.00,0.00,0.00,0.00,0.00,0.00,0.00,0.00,0.00,1000000.00,0.00,1000000.00,0.00,0.00,0.00,0.00,1000000.00,0.00,0.00,0.00
0.00,0.00,0.00,0.00,0.00,0.00,0.00,0.00,500000.00,0.00,0.00,0.00,0.00,0.00,0.00,0.00,0.00,0.00,0.00,500000.00,0.00,0.00,0.00,0.00,0.00,0.00,0.00,0.00,0.00,0.00,0.00,1000000.00,0.00,0.00,1000000.00,0.00,0.00,0.00,0.00,0.00
0.00,0.00,0.00,0.00,0.00,0.00,0.00,0.00,2000000.00,1000000.00,2000000.00,4000000.00,1500000.00,3000000.00,0.00,0.00,0.00,0.00,0.00,3000000.00,0.00,0.00,0.00,0.00,0.00,0.00,0.00,1000000.00,0.00,1000000.00,0.00,0.00,1000000.00,1000000.00,0.00,0.00,0.00,0.00,0.00,0.00
0.00,0.00,0.00,0.00,0.00,0.00,0.00,0.00,1000000.00,0.00,0.00,0.00,0.00,0.00,0.00,0.00,0.00,0.00,500000.00,0.00,0.00,0.00,0.00,0.00,0.00,0.00,0.00,0.00,0.00,0.00,0.00,0.00,0.00,0.00,0.00,0.00,0.00,0.00,0.00,0.00
0.00,0.00,0.00,0.00,0.00,0.00,0.00,0.00,0.00,0.00,4000000.00,4000000.00,4000000.00,2000000.00,1000000.00,0.00,1000000.00,0.00,0.00,0.00,0.00,0.00,1000000.00,0.00,0.00,0.00,1500000.00,0.00,1000000.00,0.00,0.00,1000000.00,0.00,1000000.00,0.00,0.00,0.00,0.00,0.00,0.00
0.00,0.00,0.00,1000000.00,0.00,0.00,1000000.00,0.00,500000.00,1000000.00,1000000.00,3000000.00,3000000.00,1000000.00,1000000.00,1000000.00,1000000.00,0.00,0.00,4000000.00,0.00,0.00,0.00,0.00,0.00,0.00,0.00,0.00,0.00,1000000.00,0.00,0.00,0.00,0.00,1000000.00,0.00,0.00,0.00,0.00,0.00
1000000.00,0.00,0.00,1000000.00,0.00,0.00,0.00,1000000.00,2000000.00,0.00,4000000.00,4000000.00,4000000.00,1000000.00,0.00,1000000.00,1000000.00,0.00,0.00,1000000.00,1000000.00,1000000.00,0.00,0.00,0.00,0.00,1000000.00,0.00,0.00,0.00,0.00,1000000.00,0.00,0.00,0.00,0.00,0.00,0.00,0.00,0.00
0.00,0.00,0.00,1000000.00,0.00,0.00,2000000.00,1000000.00,1000000.00,0.00,5000000.00,2000000.00,3000000.00,1000000.00,1000000.00,0.00,3000000.00,0.00,0.00,1000000.00,1000000.00,0.00,1500000.00,0.00,0.00,0.00,0.00,1000000.00,0.00,1500000.00,0.00,0.00,0.00,0.00,0.00,0.00,0.00,0.00,0.00,0.00
0.00,0.00,0.00,0.00,0.00,0.00,0.00,0.00,500000.00,0.00,0.00,0.00,0.00,0.00,0.00,0.00,500000.00,0.00,1000000.00,0.00,0.00,0.00,0.00,0.00,0.00,0.00,0.00,0.00,0.00,0.00,0.00,0.00,0.00,0.00,0.00,0.00,0.00,0.00,0.00,0.00
0.00,0.00,0.00,0.00,0.00,0.00,0.00,0.00,0.00,0.00,0.00,0.00,0.00,0.00,0.00,0.00,0.00,0.00,0.00,0.00,0.00,0.00,0.00,0.00,0.00,0.00,0.00,0.00,0.00,0.00,0.00,0.00,0.00,0.00,0.00,0.00,0.00,0.00,0.00,0.00
0.00,1000000.00,0.00,0.00,0.00,0.00,0.00,0.00,0.00,1000000.00,6000000.00,5000000.00,0.00,2000000.00,2000000.00,0.00,0.00,0.00,0.00,3000000.00,0.00,1000000.00,0.00,0.00,0.00,0.00,0.00,0.00,0.00,0.00,0.00,0.00,0.00,0.00,0.00,0.00,0.00,0.00,0.00,0.00
1000000.00,2000000.00,0.00,1000000.00,0.00,0.00,2000000.00,0.00,1000000.00,0.00,3000000.00,4000000.00,3000000.00,0.00,1000000.00,1000000.00,3000000.00,0.00,0.00,5000000.00,0.00,1000000.00,0.00,0.00,0.00,0.00,1500000.00,0.00,0.00,1000000.00,0.00,0.00,0.00,0.00,0.00,0.00,0.00,0.00,0.00,0.00
0.00,0.00,0.00,0.00,0.00,1000000.00,0.00,2000000.00,0.00,1000000.00,1000000.00,6000000.00,2000000.00,1000000.00,0.00,0.00,2000000.00,0.00,0.00,0.00,0.00,0.00,1000000.00,1000000.00,0.00,0.00,0.00,1000000.00,0.00,0.00,0.00,0.00,0.00,0.00,0.00,0.00,0.00,0.00,0.00,0.00
1000000.00,0.00,0.00,0.00,1000000.00,0.00,1000000.00,2000000.00,1000000.00,0.00,3000000.00,4000000.00,0.00,2000000.00,0.00,0.00,2500000.00,0.00,0.00,1000000.00,0.00,0.00,0.00,0.00,0.00,0.00,1000000.00,1000000.00,0.00,0.00,0.00,0.00,0.00,1000000.00,0.00,0.00,0.00,0.00,0.00,0.00
0.00,1000000.00,0.00,0.00,0.00,0.00,0.00,4000000.00,0.00,2000000.00,3000000.00,9000000.00,4000000.00,4000000.00,3000000.00,3000000.00,0.00,0.00,0.00,0.00,1000000.00,0.00,5000000.00,3000000.00,0.00,0.00,1000000.00,1000000.00,4000000.00,0.00,0.00,3000000.00,500000.00,1000000.00,0.00,0.00,0.00,1000000.00,0.00,0.00
0.00,0.00,0.00,0.00,500000.00,0.00,0.00,0.00,0.00,0.00,0.00,0.00,0.00,0.00,0.00,0.00,0.00,500000.00,0.00,0.00,0.00,0.00,0.00,0.00,0.00,1000000.00,0.00,0.00,0.00,0.00,500000.00,0.00,0.00,0.00,0.00,0.00,0.00,0.00,0.00,0.00
0.00,0.00,0.00,0.00,0.00,0.00,0.00,0.00,0.00,0.00,0.00,0.00,0.00,0.00,0.00,0.00,0.00,0.00,500000.00,0.00,0.00,0.00,0.00,0.00,0.00,0.00,0.00,0.00,0.00,0.00,0.00,0.00,0.00,0.00,0.00,0.00,0.00,0.00,0.00,0.00
0.00,0.00,0.00,0.00,2000000.00,1000000.00,1000000.00,1000000.00,0.00,1000000.00,0.00,3000000.00,1000000.00,0.00,0.00,1000000.00,0.00,0.00,0.00,0.00,2500000.00,2000000.00,3000000.00,0.00,0.00,500000.00,3000000.00,1000000.00,1000000.00,1000000.00,0.00,0.00,0.00,0.00,0.00,0.00,0.00,1000000.00,0.00,0.00
0.00,0.00,0.00,0.00,1000000.00,1000000.00,1000000.00,1000000.00,1000000.00,0.00,3000000.00,3000000.00,2000000.00,1000000.00,0.00,0.00,1000000.00,0.00,0.00,3000000.00,0.00,0.00,1000000.00,0.00,0.00,0.00,0.00,1000000.00,1000000.00,0.00,0.00,0.00,0.00,0.00,0.00,0.00,0.00,0.00,0.00,0.00
0.00,0.00,0.00,0.00,0.00,0.00,1000000.00,1000000.00,1000000.00,0.00,3000000.00,3000000.00,1500000.00,2000000.00,0.00,0.00,0.00,0.00,0.00,3000000.00,0.00,0.00,1000000.00,2000000.00,0.00,0.00,1000000.00,0.00,1000000.00,1000000.00,0.00,0.00,0.00,0.00,0.00,0.00,0.00,0.00,0.00,0.00
1000000.00,0.00,0.00,2000000.00,2000000.00,1000000.00,2000000.00,1000000.00,0.00,2000000.00,3000000.00,1000000.00,1000000.00,0.00,2000000.00,1000000.00,0.00,0.00,0.00,4000000.00,2000000.00,1000000.00,0.00,2000000.00,0.00,0.00,1000000.00,1000000.00,1000000.00,2000000.00,0.00,3000000.00,0.00,3000000.00,2000000.00,1000000.00,0.00,1000000.00,0.00,0.00
1500000.00,1000000.00,0.00,0.00,1000000.00,0.00,2000000.00,1000000.00,4000000.00,3000000.00,1500000.00,3000000.00,0.00,1000000.00,1500000.00,2000000.00,1000000.00,0.00,0.00,4000000.00,0.00,2000000.00,3000000.00,0.00,0.00,0.00,3000000.00,4000000.00,3000000.00,4000000.00,0.00,1500000.00,0.00,0.00,0.00,0.00,0.00,0.00,0.00,0.00
2000000.00,1000000.00,0.00,0.00,1000000.00,0.00,1000000.00,1000000.00,4000000.00,1000000.00,3000000.00,0.00,3000000.00,1000000.00,3000000.00,3000000.00,3000000.00,0.00,0.00,9000000.00,4000000.00,6000000.00,4000000.00,5000000.00,0.00,0.00,2000000.00,4000000.00,3000000.00,4000000.00,0.00,4000000.00,0.00,0.00,3000000.00,1000000.00,1000000.00,1000000.00,0.00,0.00
0.00,2000000.00,0.00,1000000.00,4000000.00,1000000.00,1000000.00,2000000.00,2000000.00,2000000.00,0.00,3000000.00,1500000.00,3000000.00,3000000.00,3000000.00,0.00,0.00,0.00,3000000.00,3000000.00,1000000.00,3000000.00,6000000.00,0.00,0.00,5000000.00,4000000.00,1000000.00,4000000.00,0.00,2000000.00,0.00,1000000.00,2000000.00,0.00,0.00,0.00,0.00,0.00
1000000.00,1000000.00,0.00,0.00,0.00,0.00,0.00,0.00,0.00,0.00,2000000.00,1000000.00,3000000.00,2000000.00,0.00,0.00,1000000.00,0.00,0.00,2000000.00,0.00,1000000.00,0.00,1000000.00,0.00,0.00,0.00,0.00,1000000.00,0.00,0.00,1000000.00,0.00,0.00,0.00,0.00,0.00,0.00,0.00,0.00
1000000.00,18000000.00,0.00,1000000.00,1000000.00,0.00,0.00,1000000.00,0.00,0.00,2000000.00,4000000.00,4000000.00,0.00,1000000.00,1000000.00,0.00,0.00,0.00,0.00,1000000.00,0.00,1000000.00,0.00,0.00,500000.00,1000000.00,2000000.00,500000.00,0.00,1000000.00,2000000.00,500000.00,12000000.00,0.00,0.00,0.00,0.00,0.00,0.00
0.00,0.00,0.00,0.00,0.00,0.00,1000000.00,0.00,1000000.00,0.00,2000000.00,1000000.00,1000000.00,1000000.00,1000000.00,1000000.00,1000000.00,0.00,0.00,4000000.00,2000000.00,2000000.00,0.00,0.00,0.00,0.00,1000000.00,1000000.00,0.00,0.00,0.00,0.00,0.00,0.00,1000000.00,0.00,0.00,0.00,0.00,0.00
0.00,0.00,0.00,0.00,1000000.00,0.00,0.00,1000000.00,0.00,0.00,1000000.00,1000000.00,2000000.00,2000000.00,1000000.00,1000000.00,1000000.00,0.00,0.00,0.00,1000000.00,0.00,2000000.00,0.00,0.00,0.00,2000000.00,0.00,1000000.00,0.00,0.00,0.00,0.00,0.00,0.00,0.00,0.00,0.00,0.00,0.00
0.00,0.00,0.00,0.00,1000000.00,0.00,0.00,0.00,0.00,0.00,1000000.00,0.00,0.00,1000000.00,0.00,1000000.00,1000000.00,0.00,0.00,0.00,0.00,1000000.00,0.00,0.00,0.00,0.00,0.00,0.00,0.00,0.00,0.00,0.00,0.00,0.00,0.00,0.00,0.00,0.00,0.00,0.00
0.00,0.00,0.00,0.00,0.00,1000000.00,1000000.00,0.00,1000000.00,0.00,4000000.00,1000000.00,1000000.00,2000000.00,0.00,1000000.00,2000000.00,0.00,500000.00,0.00,1000000.00,0.00,0.00,0.00,0.00,0.00,0.00,0.00,0.00,0.00,0.00,0.00,0.00,0.00,0.00,0.00,0.00,0.00,0.00,0.00
1000000.00,0.00,1000000.00,0.00,0.00,0.00,0.00,0.00,1000000.00,0.00,1000000.00,0.00,0.00,2000000.00,0.00,0.00,0.00,0.00,0.00,0.00,0.00,0.00,1000000.00,0.00,0.00,0.00,1000000.00,1000000.00,1000000.00,0.00,0.00,0.00,0.00,1000000.00,2000000.00,0.00,0.00,0.00,0.00,0.00
0.00,0.00,0.00,1000000.00,0.00,0.00,0.00,0.00,0.00,0.00,0.00,0.00,0.00,0.00,0.00,0.00,0.00,0.00,0.00,0.00,0.00,0.00,0.00,0.00,0.00,0.00,0.00,0.00,0.00,0.00,0.00,0.00,0.00,0.00,0.00,0.00,0.00,0.00,0.00,0.00
0.00,0.00,0.00,0.00,0.00,0.00,0.00,0.00,18000000.00,1000000.00,2000000.00,1000000.00,1000000.00,0.00,0.00,0.00,0.00,0.00,0.00,1000000.00,0.00,0.00,2000000.00,1000000.00,0.00,0.00,0.00,0.00,0.00,0.00,0.00,0.00,0.00,0.00,0.00,0.00,0.00,0.00,0.00,0.00
0.00,0.00,0.00,1000000.00,0.00,0.00,0.00,0.00,1000000.00,1000000.00,0.00,2000000.00,1500000.00,1000000.00,0.00,0.00,0.00,0.00,0.00,0.00,1000000.00,0.00,1000000.00,0.00,0.00,0.00,0.00,1000000.00,0.00,0.00,0.00,0.00,0.00,1000000.00,0.00,0.00,0.00,0.00,0.00,0.00
